pylint
Hint: use `# pylint: disable=<violation name>` for disabling line check. For a list of violations, see `pylint --list-msgs`
samples/show-warnings.py:4: [W0125(using-constant-test), elif_then_return] Using a conditional statement with a constant value
✗
